Lecture 7: Data visualization, part 2
…
Transform from wide to long

Let’s make it to long format with the tidyr function pivot_longer().

Table_TPMs_long<-pivot_longer(data=Table_TPMs_wide, 
                             cols=colnames(Table_TPMs_wide)[-1],# Cols to pivot: all except 1st
                             values_to = "TPMs",# name of the col that contained the vals of pivoted cols
                             names_to = "Sample")# name of the col that contains the names of the pivoted cols

Table_TPMs_long

# A tibble: 600 × 3
   GeneID      Sample      TPMs
   <chr>       <chr>      <dbl>
 1 FBgn0000003 Control_1 374.  
 2 FBgn0000003 Control_2 208.  
 3 FBgn0000003 Control_3 161.  
 4 FBgn0000003 Treated_1  72.2 
 5 FBgn0000003 Treated_2 115.  
 6 FBgn0000003 Treated_3  54.4 
 7 FBgn0000008 Control_1  11.9 
 8 FBgn0000008 Control_2  10.5 
 9 FBgn0000008 Control_3  14.2 
10 FBgn0000008 Treated_1   8.53
# ℹ 590 more rows

Now that we have in long format, we can split the Sample column into new columns with the Condition and replicate number.

Table_TPMs_long_2<-Table_TPMs_long %>% 
                        tidyr::separate(Sample, sep="_", into = c("Condition","Replicate"),remove=FALSE)

Table_TPMs_long_2 

# A tibble: 600 × 5
   GeneID      Sample    Condition Replicate   TPMs
   <chr>       <chr>     <chr>     <chr>      <dbl>
 1 FBgn0000003 Control_1 Control   1         374.  
 2 FBgn0000003 Control_2 Control   2         208.  
 3 FBgn0000003 Control_3 Control   3         161.  
 4 FBgn0000003 Treated_1 Treated   1          72.2 
 5 FBgn0000003 Treated_2 Treated   2         115.  
 6 FBgn0000003 Treated_3 Treated   3          54.4 
 7 FBgn0000008 Control_1 Control   1          11.9 
 8 FBgn0000008 Control_2 Control   2          10.5 
 9 FBgn0000008 Control_3 Control   3          14.2 
10 FBgn0000008 Treated_1 Treated   1           8.53
# ℹ 590 more rows
…
